1 10 20
100 200 125
201 210 89
900 1000 174
1 5 8
6 10 20
11 15 18
16 20 21
21 25 24
26 30 112
1 1 1
3 3 8
999999 999999 259
1000 1100 169
27 28 112
457 32 144
6 1 9
10 1 20
200 100 125
999998 999999 259
999999 999998 259
153 25 122
25 153 122
77 200 125
300 310 87
35 40 35
45 50 105
55 60 113
65 70 28
75 80 36
11 12 15
13 14 18
1 4 8
18 17 21
17 18 21
100 1001 179
1 1 1
100 20 119
201 21 125
900 100 179
1 5 8
6 1 9
11 1 20
16 2 20
21 2 21
26 3 24
1 1 1
3 3 8
999999 99999 525
1000 110 179
27 2 112
457 3 144
6 1 9
10 1 20
200 10 125
999998 99999 525
999999 99999 525
153 2 122
25 15 24
77 20 116
300 31 128
35 4 112
45 5 112
55 6 113
65 7 113
75 8 116
11 1 20
13 1 20
1 4 8
18 1 21
17 1 20
100 100 26
1 14 20
100 204 125
201 214 102
900 1004 174
1 54 113
6 14 20
11 14 18
16 24 21
21 24 16
26 34 112
1 14 20
3 34 112
999999 999994 259
1000 1104 169
27 24 112
457 34 144
6 14 20
10 14 18
200 140 125
999998 999994 259
999999 999994 259
153 24 122
25 154 122
77 204 125
300 314 131
35 44 110
45 54 113
55 64 113
65 74 116
75 84 111
11 14 18
13 14 18
1 44 112
18 14 21
17 14 18
100 1400 182
