.............
----------------------------------------------------------------------
Ran 13 tests in 9.393s

OK
Name             Stmts   Miss Branch BrPart  Cover   Missing
------------------------------------------------------------
Collatz.py          29      0     14      0   100%
TestCollatz.py      60      0      0      0   100%
------------------------------------------------------------
TOTAL               89      0     14      0   100%
