1 10 20
100 200 125
201 210 89
900 1000 174
29 89 116
184 195 120
216 284 128
314 390 144
437 448 116
581 582 119
693 699 127
762 789 153
809 815 135
923 958 174
1052 1059 169
1153 1168 182
1257 1263 177
1332 1346 146
1491 1492 92
1590 1600 123
1621 1673 180
1706 1745 180
1840 1866 131
1972 1992 144
2058 2062 126
2127 2197 170
2274 2299 152
2333 2338 121
2498 2500 178
2550 2556 178
2642 2654 147
2776 2777 129
2885 2900 142
2936 2944 173
3055 3089 155
3112 3184 199
3239 3243 168
3309 3347 181
3421 3493 181
3567 3600 194
3642 3666 163
3773 3777 132
3805 3842 176
3945 3985 189
4009 4065 189
4188 4195 127
4245 4283 202
4380 4391 171
4435 4449 184
4537 4572 184
4649 4696 153
4786 4793 122
4897 4898 166
4949 4992 166
5006 5088 179
5165 5199 179
5211 5267 192
5377 5392 148
5494 5499 99
5563 5579 236
5698 5699 68
5705 5711 130
5804 5831 143
5990 6000 187
6023 6084 187
6100 6107 156
6254 6291 156
6389 6391 125
6445 6498 169
6523 6553 200
6641 6699 182
6750 6791 182
6867 6898 182
6912 6954 257
7066 7095 151
7100 7163 195
7292 7293 164
7300 7355 195
7409 7432 239
7597 7600 71
7636 7660 177
7709 7762 177
7858 7893 177
7983 7991 84
8005 8050 190
8148 8164 177
8272 8276 159
8392 8397 128
8410 8468 203
8596 8600 66
8636 8673 172
8724 8730 141
8809 8865 172
8918 8942 141
9019 9074 185
9158 9170 198
9265 9285 154
9337 9369 198
9405 9453 154
9508 9516 198
9614 9695 185
9797 9800 136
9815 9882 211
9901 9964 167
10022 10058 136
10125 10183 180
10291 10294 118
10331 10361 180
10423 10452 149
10530 10572 193
10681 10690 162
10709 10758 193
10847 10866 206
10966 10978 268
11094 11097 69
11195 11196 69
11261 11265 206
11323 11395 206
11469 11477 175
11552 11578 144
11681 11694 144
11772 11788 175
11899 11900 144
11948 11954 95
12052 12055 188
12158 12194 188
12230 12231 157
12344 12356 144
12473 12492 201
12514 12555 232
12683 12690 201
12798 12800 170
12837 12890 170
12937 12998 201
13058 13081 170
13177 13182 245
13252 13273 276
13316 13355 183
13445 13461 227
13594 13599 121
13663 13680 183
13703 13763 214
13851 13896 258
13909 13996 183
14025 14073 196
14100 14191 152
14233 14244 152
14339 14389 196
14441 14498 209
14501 14505 165
14692 14695 271
14781 14799 209
14845 14875 240
14947 14950 103
15078 15098 209
15115 15167 222
15240 15244 178
15326 15395 240
15412 15426 147
15519 15561 147
15688 15698 178
15721 15774 178
15812 15857 222
15915 15985 253
16090 16093 98
16150 16174 191
16217 16289 204
16328 16378 191
16481 16483 98
16535 16562 160
16672 16700 160
16706 16773 160
16879 16896 204
16930 16970 204
17009 17100 217
17105 17168 235
17291 17297 142
17305 17332 173
17496 17499 111
17586 17594 248
17624 17640 155
17700 17738 173
17803 17896 217
17908 17974 248
18010 18046 155
18127 18184 186
18245 18258 186
18342 18384 186
18442 18475 230
18534 18551 168
18608 18696 186
18789 18792 230
18839 18886 261
18906 18941 199
19006 19076 199
19193 19195 199
19234 19253 168
19376 19395 168
19479 19495 199
19550 19580 199
19614 19627 168
19701 19796 243
19833 19850 168
19966 19970 212
